<svg width="120" height="120" viewBox="0 0 120 120" fill="none" xmlns="http://www.w3.org/2000/svg">
<g clip-path="url(#clip0_44_197)">
<path d="M100.001 25.2408C100.001 24.8107 99.8171 24.4011 99.4961 24.1146C99.1751 23.828 98.7474 23.6924 98.32 23.741C81.2455 25.6899 69.278 21.4607 61.7326 10.8134C61.4496 10.4142 60.9904 10.1767 60.5009 10.1767C60.0113 10.1767 59.5522 10.4139 59.2692 10.8134C51.7233 21.4615 39.7552 25.6897 22.6825 23.741C22.2554 23.6922 21.8274 23.828 21.5064 24.1146C21.1854 24.4008 21.002 24.8107 21.002 25.2408C21.002 38.193 20.0632 48.7807 19.3087 57.2879C17.9786 72.2856 17.0999 82.1936 22.1686 91.1936C26.7057 99.2499 35.7839 106.22 53.8503 115.299H35.2204C34.3869 115.299 33.711 115.975 33.711 116.808C33.711 117.642 34.3869 118.318 35.2204 118.318H86.3001C87.1336 118.318 87.8096 117.642 87.8096 116.808C87.8096 115.975 87.1336 115.299 86.3001 115.299H66.8513C104.988 96.1047 104.085 85.5895 101.628 56.9878C100.903 48.5478 100.001 38.0439 100.001 25.2408ZM96.0541 89.6222C91.4108 97.8481 81.3766 105.025 60.354 115.129C39.4098 105.064 29.4181 97.9133 24.7993 89.7123C20.1899 81.5279 21.036 71.991 22.316 57.5548C23.043 49.3563 23.9404 39.2383 24.0161 26.9136C32.0815 27.6567 39.2003 26.9958 45.1965 24.9455C51.3437 22.8439 56.4835 19.2323 60.5011 14.1968C64.519 19.2323 69.6576 22.8441 75.8025 24.9455C81.7977 26.9958 88.9185 27.6559 96.9867 26.9136C97.0601 39.0886 97.922 49.1181 98.6201 57.2464C99.8702 71.7905 100.696 81.3993 96.0541 89.6222Z" fill="black"/>
<path d="M89.0302 36.4942C89.0302 36.0643 88.8468 35.6545 88.5258 35.3682C88.2053 35.0817 87.7771 34.9458 87.35 34.9946C75.3653 36.3601 66.9816 33.4092 61.7132 25.975C61.4302 25.5757 60.9711 25.3383 60.4815 25.3383C59.992 25.3383 59.5328 25.5755 59.2498 25.975C53.9811 33.4095 45.5983 36.3594 33.6234 34.9946C33.1947 34.9458 32.7681 35.0819 32.4473 35.3682C32.1266 35.6547 31.9429 36.0643 31.9429 36.4945C31.9429 45.6887 31.2762 53.2102 30.7404 59.2537C29.7872 70.0074 29.1575 77.1116 32.8307 83.6336C36.4398 90.0417 43.9821 95.4723 59.7318 103.003C59.9376 103.102 60.1605 103.151 60.3829 103.151C60.6053 103.151 60.8284 103.102 61.0342 103.003C76.8388 95.4444 84.4091 89.9966 88.0352 83.5725C91.7303 77.0258 91.116 69.8718 90.1859 59.0432C89.6712 53.0464 89.0302 45.5838 89.0302 36.4942ZM85.4068 82.0882C82.2073 87.7561 74.9379 92.9566 60.3834 99.9664C45.8843 92.9843 38.6438 87.8022 35.4614 82.1518C32.2476 76.4454 32.8443 69.7123 33.7477 59.5201C34.2561 53.7845 34.8813 46.7305 34.9547 38.1591C36.3092 38.2713 37.6227 38.3274 38.8986 38.3274C48.2546 38.3269 55.4928 35.3098 60.4815 29.3232C65.4712 35.3106 72.7099 38.3277 82.0722 38.3274C83.3482 38.3274 84.6639 38.2713 86.0184 38.1591C86.0896 46.625 86.6901 53.616 87.1784 59.3015C88.0606 69.57 88.6433 76.3539 85.4068 82.0882Z" fill="black"/>
<path d="M39.5468 80.1173C36.0479 73.9047 36.4532 67.1639 37.3234 57.2436C37.3963 56.4131 38.1297 55.7971 38.9601 55.8706C39.7905 55.9442 40.4036 56.6794 40.3308 57.51C39.5102 66.8681 39.1247 73.215 42.1775 78.6355C44.0664 81.9893 47.3849 85.178 52.8024 88.6762C53.5191 89.139 53.7348 90.0969 53.2673 90.8105C52.8174 91.4974 51.9011 91.7025 51.2104 91.2585C45.2921 87.4536 41.7118 83.9613 39.5468 80.1173Z" fill="black"/>
<path d="M75.9421 11.8165L80.4518 13.2021L81.839 17.7186C82.0335 18.3523 82.6191 18.7848 83.2818 18.7848C83.9444 18.7848 84.5301 18.3523 84.7245 17.7186L86.1117 13.2024L90.6226 11.8167C91.2563 11.6223 91.6888 11.0368 91.6888 10.3742C91.6888 9.71157 91.2566 9.12616 90.6231 8.93119L86.1114 7.54402L84.7245 3.03308C84.5298 2.39962 83.9444 1.96716 83.2818 1.96716C82.6191 1.96716 82.0337 2.39962 81.839 3.03308L80.4521 7.54402L75.9419 8.93119C75.3082 9.12591 74.8762 9.71131 74.8762 10.3742C74.876 11.0366 75.3087 11.6218 75.9421 11.8165ZM82.1034 10.1943C82.5814 10.0474 82.9555 9.67308 83.1026 9.19509L83.2818 8.61245L83.4609 9.19509C83.608 9.67308 83.9821 10.0474 84.4601 10.1943L85.0415 10.3729L84.4606 10.5513C83.9824 10.6982 83.6078 11.0726 83.4609 11.5511L83.2818 12.134L83.1026 11.5511C82.9557 11.0728 82.5814 10.6982 82.1031 10.5513L81.5223 10.3729L82.1034 10.1943Z" fill="black"/>
<path d="M15.7454 58.1833L11.2345 56.7976L9.84755 52.2854C9.65284 51.6517 9.06743 51.2195 8.40454 51.2195C7.74164 51.2195 7.15648 51.6519 6.96177 52.2856L5.5756 56.7978L1.06592 58.1835C0.432209 58.3782 7.4317e-06 58.9634 -0.000244141 59.626C-0.000244141 60.2889 0.431957 60.8741 1.06542 61.069L5.57535 62.4562L6.96152 66.9714C7.15598 67.6054 7.74139 68.0378 8.40428 68.0378C9.06718 68.0378 9.65259 67.6051 9.84705 66.9717L11.2342 62.4565L15.7454 61.0693C16.3789 60.8746 16.8113 60.2892 16.8111 59.6263C16.8108 58.9634 16.3789 58.3777 15.7454 58.1833ZM9.5829 59.8054C9.10491 59.9523 8.73057 60.3267 8.58365 60.8049L8.40504 61.3863L8.22667 60.8051C8.08001 60.3269 7.70567 59.9523 7.22743 59.8054L6.6463 59.6268L7.22718 59.4482C7.70542 59.3012 8.07976 58.9269 8.22667 58.4484L8.40504 57.8675L8.58365 58.4487C8.73057 58.9269 9.10491 59.3012 9.5834 59.4482L10.1643 59.6265L9.5829 59.8054Z" fill="black"/>
<path d="M119.049 79.5669L114.537 78.18L113.15 73.665C112.956 73.0311 112.371 72.5986 111.708 72.5986H111.708C111.045 72.5986 110.459 73.0313 110.265 73.6648L108.878 78.18L104.368 79.5669C103.734 79.7616 103.302 80.3473 103.302 81.01C103.302 81.6726 103.735 82.2577 104.368 82.4525L108.878 83.8386L110.265 88.3516C110.46 88.9853 111.045 89.4175 111.708 89.4175C112.371 89.4175 112.956 88.9848 113.15 88.3513L114.537 83.8386L119.048 82.4525C119.682 82.258 120.114 81.6726 120.114 81.01C120.115 80.3468 119.682 79.7616 119.049 79.5669ZM112.886 81.1878C112.407 81.3347 112.033 81.7091 111.886 82.1876L111.707 82.7689L111.529 82.1873C111.382 81.7093 111.007 81.3347 110.529 81.1878L109.948 81.0092L110.529 80.8306C111.007 80.6834 111.382 80.3091 111.529 79.8308L111.707 79.2492L111.886 79.8306C112.032 80.3088 112.407 80.6834 112.885 80.8306L113.467 81.0092L112.886 81.1878Z" fill="black"/>
</g>
<defs>
<clipPath id="clip0_44_197">
<rect width="120" height="120" fill="white"/>
</clipPath>
</defs>
</svg>
